FAS1002-A22 - regex.qmd
…
# base_table <- rbind(base_tables[[1]], base_tables[[2]], base_tables[[3]])

names(base_tables[[3]])

[1] "Territoire"   "Aéroport"     "Exploité par"

⚠️ Erreur! Une colonne n’est pas nommée de façon identique, donc ne fonctionne pas… Corrigeons la situation

names(base_tables[[3]])[1] <- "Province/Territoire"

base_table <- rbind(base_tables[[1]], base_tables[[2]], base_tables[[3]])

base_table

# A tibble: 44 × 3
   `Province/Territoire`  Aéroport                `Exploité par`                
   <chr>                  <chr>                   <chr>                         
 1 "Colombie-Britannique" Penticton               "Transports Canada\n\t\t\t#10…
 2 ""                     Port Hardy              "Transports Canada\n\t\t\tC.P…
 3 ""                     Sandspit                "Transports Canada\n\t\t\tC.P…
 4 ""                     Havre de Victoria       "Transports Canada\n\t\t\t12,…
 5 "Manitoba"             Churchill               "Transports Canada\n\t\t\tC.P…
 6 "Québec"               Chevery                 "Municipalité de la Côte-Nord…
 7 ""                     Lourdes-de-Blanc-Sablon "Transports Canada\n\t\t\tAir…
 8 ""                     Sept-Îles               "Transports Canada\n\t\t\t100…
 9 ""                     Natashquan              "Municipalité de Natashquan\n…
10 ""                     Eastmain River          "Transports Canada\n\t\t\ta/s…
# … with 34 more rows
…
URL <- "https://tc.canada.ca/fr/aviation/exploitation-aeroports-aerodromes/liste-aeroports-appartenant-transports-canada"

tables <- read_html(x = URL) %>%
    html_elements(css = "table") %>%
    html_table()

table <- dplyr::bind_rows(tables[[1]],
                          tables[[2]],
                          tables[[3]],
                          .id = "type")

# ou solution alternative équivalente
tables %>% purrr::map_dfr(bind_rows, .id = "type")

# A tibble: 44 × 5
   type  `Province/Territoire`  Aéroport                `Exploité par`   Terri…¹
   <chr> <chr>                  <chr>                   <chr>            <chr>  
 1 1     "Colombie-Britannique" Penticton               "Transports Can… <NA>   
 2 1     ""                     Port Hardy              "Transports Can… <NA>   
 3 1     ""                     Sandspit                "Transports Can… <NA>   
 4 1     ""                     Havre de Victoria       "Transports Can… <NA>   
 5 1     "Manitoba"             Churchill               "Transports Can… <NA>   
 6 1     "Québec"               Chevery                 "Municipalité d… <NA>   
 7 1     ""                     Lourdes-de-Blanc-Sablon "Transports Can… <NA>   
 8 1     ""                     Sept-Îles               "Transports Can… <NA>   
 9 1     ""                     Natashquan              "Municipalité d… <NA>   
10 1     ""                     Eastmain River          "Transports Can… <NA>   
# … with 34 more rows, and abbreviated variable name ¹​Territoire
…
